Budwiser Case Study 01 by Megan R. and Egar N.
…
##  ggplot2 3.2.1      purrr   0.3.2
##  tibble  2.1.3      dplyr   0.8.3
##  tidyr   0.8.3      stringr 1.4.0
##  readr   1.3.1      forcats 0.4.0

##  Conflicts  tidyverse_conflicts() 
##  dplyr::filter() masks stats::filter()
##  dplyr::lag()    masks stats::lag()

#At the moment the file wont knit without reloading tidyverse here
#Should find a permanent fix for the final rmd presentation.
BreweriesData %>% group_by(State) %>% summarise(n = n())

## # A tibble: 51 x 2
##    State     n
##    <chr> <int>
##  1 AK        7
##  2 AL        3
##  3 AR        2
##  4 AZ       11
##  5 CA       39
##  6 CO       47
##  7 CT        8
##  8 DC        1
##  9 DE        2
## 10 FL       15
## #  with 41 more rows
…
